{
    "a": {
        "a": ["a"
    ],
    "b": [
        "a",
        "b"
    ],
    "c": [
        "a",
        "e",
        "c"
    ],
    "d": [
        "a",
        "d"
    ],
    "e": [
        "a",
        "e"
    ]
},
"b": {
    "a": [
        "b",
        "a"
    ],
    "b": [
        "b"
    ],
    "c": [
        "b",
        "a",
        "e",
        "c"
    ],
    "d": [
        "b",
        "d"
    ],
    "e": [
        "b",
        "a",
        "e"
    ]
},
"c": {
    "a": [
        "c",
        "e",
        "a"
    ],
    "b": [
        "c",
        "e",
        "a",
        "b"
    ],
    "c": [
        "c"
    ],
    "d": [
        "c",
        "d"
    ],
    "e": [
        "c",
        "e"
    ]
},
"d": {
    "a": [
        "d",
        "a"
    ],
    "b": [
        "d",
        "b"
    ],
    "c": [
        "d",
        "c"
    ],
    "d": [
        "d"
    ],
    "e": [
        "d",
        "c",
        "e"
    ]
},
"e": {
    "a": [
        "e",
        "a"
    ],
    "b": [
        "e",
        "a",
        "b"
    ],
    "c": [
        "e",
        "c"
    ],
    "d": [
        "e",
        "c",
        "d"
    ],
    "e": [
        "e"
    ]
}
}